{
  "settings": {
    "analysis": {
      "analyzer": {
        "autocomplete": {
          "tokenizer": "autocomplete",
          "filter": ["lowercase"]
        },
        "autocomplete_search": {
          "tokenizer": "lowercase"
        }
      },
      "tokenizer": {
        "autocomplete": {
          "type": "edge_ngram",
          "min_gram": 1,
          "max_gram": 10,
          "token_chars": ["letter"]
        }
      }
    }
  },
  "mappings": {
    "dynamic": false,
    "properties": {
      "@timestamp": {"type": "date"},
      "message": {"type": "text", "index": false},
      "date": {"type": "date"},
      "site": {"type": "keyword"},
      "keyword": {
        "type": "text",
        "analyzer": "autocomplete",
        "search_analyzer": "autocomplete_search"
      },
      "google_rank": {"type": "integer"},
      "google_base_rank": {"type": "integer"},
      "yahoo_rank": {"type": "integer"},
      "bing_rank": {"type": "integer"},
      "global_monthly_searches": {"type": "integer"},
      "market": {"type": "keyword"},
      "location": {"type": "keyword"},
      "device": {"type": "keyword"},
      "google_url": {"type": "keyword"},
      "yahoo_url": {"type": "keyword"},
      "bing_url": {"type": "keyword"},
      "advertiser_competition": {"type": "text"},
      "regional_monthly_searches": {"type": "integer"},
      "cpc": {"type": "keyword"}
    }
  }
}
